summary:
       name:  results
       ----  --------
       pass:       53
       fail:        0
      crash:        0
       skip:        0
    timeout:        0
       warn:        0
 incomplete:        0
 dmesg-warn:        0
 dmesg-fail:        0
    changes:        0
      fixes:        0
regressions:        0
      total:       53
